<?xml version="1.0" ?>
<sdf version="1.6">
  <world name="default">

    <include>
         <uri>model://sun</uri>
    </include>

    <actor name="actor">
      <skin> 
        <filename>/home/linxi/Human_dae/stand.dae</filename>
      </skin>
      
      <animation name="walking">
        <filename>/home/linxi/Human_dae/walk.dae</filename>
		<interpolate_x>true</interpolate_x>
      </animation> 
      <!--<animation name="sitting">
        <filename>/home/linxi/Human_dae/sit_down.dae</filename>
      </animation>  -->
	  
	  <plugin name="actor_collisions_plugin" filename="libActorCollisionsPlugin.so">
      <scaling collision="LHipJoint_LeftUpLeg_collision" scale="
        0.01
        0.001
        0.001
      "/>
      <scaling collision="LeftUpLeg_LeftLeg_collision" scale="
        8.0
        8.0
        1.0
      "/>
      <scaling collision="LeftLeg_LeftFoot_collision" scale="
        8.0
        8.0
        1.0
      "/>
      <scaling collision="LeftFoot_LeftToeBase_collision" scale="
        4.0
        4.0
        1.5
      "/>
      <scaling collision="RHipJoint_RightUpLeg_collision" scale="
        0.01
        0.001
        0.001
      "/>
      <scaling collision="RightUpLeg_RightLeg_collision" scale="
        8.0
        8.0
        1.0
      "/>
      <scaling collision="RightLeg_RightFoot_collision" scale="
        8.0
        8.0
        1.0
      "/>
      <scaling collision="RightFoot_RightToeBase_collision" scale="
        4.0
        4.0
        1.5
      "/>
      <scaling collision="LowerBack_Spine_collision" scale="
        12.0
        20.0
        5.0
      " pose="0.05 0 0 0 -0.2 0"/>
      <scaling collision="Spine_Spine1_collision" scale="
        0.01
        0.001
        0.001
      "/>
      <scaling collision="Neck_Neck1_collision" scale="
        0.01
        0.001
        0.001
      "/>
      <scaling collision="Neck1_Head_collision" scale="
        5.0
        5.0
        3.0
      "/>
      <scaling collision="LeftShoulder_LeftArm_collision" scale="
        0.01
        0.001
        0.001
      "/>
      <scaling collision="LeftArm_LeftForeArm_collision" scale="
        5.0
        5.0
        1.0
      "/>
      <scaling collision="LeftForeArm_LeftHand_collision" scale="
        5.0
        5.0
        1.0
      "/>
      <scaling collision="LeftFingerBase_LeftHandIndex1_collision" scale="
        4.0
        4.0
        3.0
      "/>
      <scaling collision="RightShoulder_RightArm_collision" scale="
        0.01
        0.001
        0.001
      "/>
      <scaling collision="RightArm_RightForeArm_collision" scale="
        5.0
        5.0
        1.0
      "/>
      <scaling collision="RightForeArm_RightHand_collision" scale="
        5.0
        5.0
        1.0
      "/>
      <scaling collision="RightFingerBase_RightHandIndex1_collision" scale="
        4.0
        4.0
        3.0
      "/>
    </plugin>

   <!-- <plugin name="actor_plugin" filename="libactor_plugin.so">	
      <target>3 5 1</target>
    </plugin> -->
	
	<plugin name="actor_pose" filename="libactor_pose.so"/> 
	

    </actor>
  </world>
</sdf>
